Project 1: Wrangling, Exploration, Visualization
…
## [1] 335

ncol(new_deaths)  #total no. of column in new_deaths dataset is 216

## [1] 216

new_deaths %>% n_distinct("date")  # there are 335 total unique IDs (date) in new_deaths dataset

## [1] 335

full_join(new_cases, new_deaths, by = "date", suffix = c("_cases", 
    "_deaths"))

## # A tibble: 335 x 431
##    date       World_cases Afghanistan_cas Albania_cases Algeria_cases
##    <date>           <dbl>            <dbl>         <dbl>         <dbl>
##  1 2019-12-31          27                0            NA             0
##  2 2020-01-01           0                0            NA             0
##  3 2020-01-02           0                0            NA             0
##  4 2020-01-03          17                0            NA             0
##  5 2020-01-04           0                0            NA             0
##  6 2020-01-05          15                0            NA             0
##  7 2020-01-06           0                0            NA             0
##  8 2020-01-07           0                0            NA             0
##  9 2020-01-08           0                0            NA             0
## 10 2020-01-09           0                0            NA             0
## #  with 325 more rows, and 426 more variables: Andorra_cases <dbl>,
## #   Angola_cases <dbl>, Anguilla_cases <dbl>, `Antigua and
## #   Barbuda_cases` <dbl>, Argentina_cases <dbl>, Armenia_cases <dbl>,
## #   Aruba_cases <dbl>, Australia_cases <dbl>, Austria_cases <dbl>,
## #   Azerbaijan_cases <dbl>, Bahamas_cases <dbl>, Bahrain_cases <dbl>,
## #   Bangladesh_cases <dbl>, Barbados_cases <dbl>, Belarus_cases <dbl>,
## #   Belgium_cases <dbl>, Belize_cases <dbl>, Benin_cases <dbl>,
## #   Bermuda_cases <dbl>, Bhutan_cases <dbl>, Bolivia_cases <dbl>, `Bonaire Sint
## #   Eustatius and Saba_cases` <dbl>, `Bosnia and Herzegovina_cases` <dbl>,
…
In both dataset (new_cases & new_deaths), the total number of observation were same and the unique ID (date) was also the same. So when I performed full_join to both data, there were no observation which were dropped. This is very important as now we can looked at full merged data with no observation lackiing from either datasets. The total no. of rows in full_join dataset are 335 which is equal to total no. of rows in original datasets. Total no. of column in full_joint is 431 which is double (minus common ID variable) as compared to original dataset as a result of joint.

Wrangling

full_data %>% pivot_longer(cols = -c("date", "World_cases", "World_deaths"), 
    names_to = "name", values_to = "value") %>% separate(name, 
    sep = "_", into = c("Country", "type")) %>% pivot_wider(names_from = "type", 
    values_from = "value")

## # A tibble: 71,690 x 6
##    date       World_cases World_deaths Country             cases deaths
##    <date>           <dbl>        <dbl> <chr>               <dbl>  <dbl>
##  1 2019-12-31          27            0 Afghanistan             0      0
##  2 2019-12-31          27            0 Albania                NA     NA
##  3 2019-12-31          27            0 Algeria                 0      0
##  4 2019-12-31          27            0 Andorra                NA     NA
##  5 2019-12-31          27            0 Angola                 NA     NA
##  6 2019-12-31          27            0 Anguilla               NA     NA
##  7 2019-12-31          27            0 Antigua and Barbuda    NA     NA
##  8 2019-12-31          27            0 Argentina              NA     NA
##  9 2019-12-31          27            0 Armenia                 0      0
## 10 2019-12-31          27            0 Aruba                  NA     NA
## #  with 71,680 more rows
…
Here, I used pivot_longer on full_data to tidy dataset and have each country their own rows. So the dataset became more longer and wider. Then I separated cases and deaths into their own separate categories. Finally, I used pivot_wider to assign cases and deaths values their own column. Now, the clean data looks much more organized and tidy. The final clean dataset have column data, column for World_cases and World_deaths which are numerical and catergorical value in Country column. In total, this dataset have 6 variables and 72690 observations.

# the new column 'ratio' contains ratio of daily deaths to
# cases on a give date, we have used na.omit to omit any raws
# this do not have any data. Because of na.omit, we lost many
# raws, the clean dataset have 71690 obs, this one have 58685
# obs.
clean %>% mutate(ratio = deaths/(cases + 1)) %>% na.omit() %>% 
    arrange(desc(ratio))

## # A tibble: 58,685 x 7
##    date       World_cases World_deaths Country     cases deaths ratio
##    <date>           <dbl>        <dbl> <chr>       <dbl>  <dbl> <dbl>
##  1 2020-08-25      213162         4247 Kazakhstan      0    108   108
##  2 2020-10-02      323180         8775 Ukraine         0     64    64
##  3 2020-06-27      189698         4563 Argentina       0     43    43
##  4 2020-04-20       70507         4986 Cameroon        0     21    21
##  5 2020-06-26      178867         6565 France          0     21    21
##  6 2020-07-28      215352         4654 Argentina       0     17    17
##  7 2020-04-25       73149         5343 Ecuador         0     16    16
##  8 2020-06-19      138809         6276 Argentina       0     16    16
##  9 2020-07-05      187773         4333 Argentina       0     16    16
## 10 2020-06-29      159070         3063 El Salvador     0     12    12
## #  with 58,675 more rows

# Using group_by, summarize, and arrange core function to see
# which country have most total_death
clean %>% group_by(Country) %>% na.omit() %>% summarize(total_death = sum(deaths)) %>% 
    arrange(desc(total_death))

## # A tibble: 214 x 2
##    Country        total_death
##    <chr>                <dbl>
##  1 United States       266063
##  2 Brazil              172561
##  3 India               136696
##  4 Mexico              105459
##  5 United Kingdom       58030
##  6 Italy                54363
##  7 France               52127
##  8 Iran                 47486
##  9 Spain                44668
## 10 Russia               39527
## #  with 204 more rows

# Using filter and select core function to visualize only
# China's cases and dealths
clean %>% filter(Country == "China") %>% select(date, Country, 
    cases, deaths)

## # A tibble: 335 x 4
##    date       Country cases deaths
##    <date>     <chr>   <dbl>  <dbl>
##  1 2019-12-31 China      27      0
##  2 2020-01-01 China       0      0
##  3 2020-01-02 China       0      0
##  4 2020-01-03 China      17      0
##  5 2020-01-04 China       0      0
##  6 2020-01-05 China      15      0
##  7 2020-01-06 China       0      0
##  8 2020-01-07 China       0      0
##  9 2020-01-08 China       0      0
## 10 2020-01-09 China       0      0
## #  with 325 more rows

# Using Stringr function to detect name of country starting
# with letter C
clean %>% distinct(Country) %>% filter(str_detect(Country, "[C]"))

## # A tibble: 22 x 1
##    Country                 
##    <chr>                   
##  1 Cambodia                
##  2 Cameroon                
##  3 Canada                  
##  4 Cape Verde              
##  5 Cayman Islands          
##  6 Central African Republic
##  7 Chad                    
##  8 Chile                   
##  9 China                   
## 10 Colombia                
## #  with 12 more rows

# Using Stringr function to replace country name
clean %>% filter(Country == "United Kingdom") %>% mutate(Country2 = str_replace(Country, 
    "United Kingdom", "UK"))

## # A tibble: 335 x 7
##    date       World_cases World_deaths Country        cases deaths Country2
##    <date>           <dbl>        <dbl> <chr>          <dbl>  <dbl> <chr>   
##  1 2019-12-31          27            0 United Kingdom     0      0 UK      
##  2 2020-01-01           0            0 United Kingdom     0      0 UK      
##  3 2020-01-02           0            0 United Kingdom     0      0 UK      
##  4 2020-01-03          17            0 United Kingdom     0      0 UK      
##  5 2020-01-04           0            0 United Kingdom     0      0 UK      
##  6 2020-01-05          15            0 United Kingdom     0      0 UK      
##  7 2020-01-06           0            0 United Kingdom     0      0 UK      
##  8 2020-01-07           0            0 United Kingdom     0      0 UK      
##  9 2020-01-08           0            0 United Kingdom     0      0 UK      
## 10 2020-01-09           0            0 United Kingdom     0      0 UK      
## #  with 325 more rows
…
clean %>% summarize(Mean_world_deaths = mean(World_deaths, na.rm = T), 
    SD_w_death = sd(World_deaths, na.rm = T), Max_w_death = max(World_deaths, 
        na.rm = T), Median_w_death = median(World_deaths, na.rm = T), 
    Min_w_deaths = min(World_deaths, na.rm = T)) %>% slice(1:10)

## # A tibble: 1 x 5
##   Mean_world_deaths SD_w_death Max_w_death Median_w_death Min_w_deaths
##               <dbl>      <dbl>       <dbl>          <dbl>        <dbl>
## 1             4339.      2925.       12583           4839            0

# Total observation in categorical variable
clean %>% group_by(Country) %>% summarize(total_obs = n())

## # A tibble: 214 x 2
##    Country             total_obs
##    <chr>                   <int>
##  1 Afghanistan               335
##  2 Albania                   335
##  3 Algeria                   335
##  4 Andorra                   335
##  5 Angola                    335
##  6 Anguilla                  335
##  7 Antigua and Barbuda       335
##  8 Argentina                 335
##  9 Armenia                   335
## 10 Aruba                     335
## #  with 204 more rows

# overall mean and sd cases of COVID based on country
clean %>% group_by(Country) %>% summarize(mean_cases = round(mean(cases, 
    na.rm = T)), sd_cases = round(sd(cases, na.rm = T)))

## # A tibble: 214 x 3
##    Country             mean_cases sd_cases
##    <chr>                    <dbl>    <dbl>
##  1 Afghanistan                141      207
##  2 Albania                    138      172
##  3 Algeria                    247      271
##  4 Andorra                     26       51
##  5 Angola                      60       82
##  6 Anguilla                     0        0
##  7 Antigua and Barbuda          1        3
##  8 Argentina                 5274     5151
##  9 Armenia                    413      611
## 10 Aruba                       19       33
## #  with 204 more rows
…
## # A tibble: 1 x 3
##   mean_cases `n()` `n_distinct(Country)`
##        <dbl> <int>                 <int>
## 1       1061 71690                   214

# monthly average of COVID cases based on country
clean %>% mutate(month = format(date, "%m"), year = format(date, 
    "%Y")) %>% group_by(year, month, Country) %>% summarize(monthy_average = sum(cases, 
    na.rm = T))

## # A tibble: 2,568 x 4
## # Groups:   year, month [12]
##    year  month Country             monthy_average
##    <chr> <chr> <chr>                        <dbl>
##  1 2019  12    Afghanistan                      0
##  2 2019  12    Albania                          0
##  3 2019  12    Algeria                          0
##  4 2019  12    Andorra                          0
##  5 2019  12    Angola                           0
##  6 2019  12    Anguilla                         0
##  7 2019  12    Antigua and Barbuda              0
##  8 2019  12    Argentina                        0
##  9 2019  12    Armenia                          0
## 10 2019  12    Aruba                            0
## #  with 2,558 more rows
…
